{
    "previous": null,
    "next": null,
    "current": 1,
    "total": 1,
    "total_pages": 1,
    "results": [
        {
            "id": "annotation_id1",
            "name": "annotation_name1",
            "annotation_type_id": "annotation1_type_id1",
            "category": "annotation",
            "value": "annotation_value1"
        },
        {
            "id": "annotation_id2",
            "name": "annotation_name2",
            "annotation_type_id": "annotation_type_id2",
            "category": "annotation",
            "value": "annotation_value2"
        },
        {
            "id": "annotation_id3",
            "name": "annotation_name3",
            "annotation_type_id": "annotation1_type_id3",
            "category": "annotation",
            "value": "annotation_value3"
        }
    ]
}