{
    "results": {
        "url": "illumina_assay_url",
        "id": "a0812c98-89f3-4dda-b0bf-4cd9f4c0c53b",
        "created_by": {
            "id": 8,
            "username": "illumina_assay_owner_username",
            "full_name": "illumina_assay_owner_full_name"
        },
        "modified_by": {
            "id": 8,
            "username": "illumina_assay_owner_username",
            "full_name": "illumina_assay_owner_full_name"
        },
        "created": "2023-06-23T16:16:35.931851+02:00",
        "modified": "2023-06-23T16:16:35.933079+02:00",
        "model_name": "assay",
        "app_name": "assays",
        "model_type": "NGSILLUMINAASSAY",
        "name": "JellesAssay",
        "choice_label": "JellesAssay",
        "description": "illumina_assay_description",
        "type": {
            "name": "NGSILLUMINAASSAY",
            "id": "589c7724-9fbf-42ec-b6c4-d2e97dd16a9a"
        },
        "is_template": false,
        "instrumentmodel": {},
        "instrumentrun": {
            "id": "ddf7bda0-f143-4d0e-8906-3049454bc75e",
            "name": "000000000-CVJ9R:MiSeqSe01",
            "deleted": false,
            "model_name": "instrumentrun",
            "app_name": "assays",
            "model_type": "DEFAULT"
        },
        "instrument": {
            "id": "06ca46fe-c254-4530-ad66-ebd0a077ad6d",
            "name": "MiSeqSe01",
            "deleted": false,
            "model_name": "equipment",
            "app_name": "stocks",
            "model_type": "SEQUENCER"
        },
        "technology": "sequencing",
        "platform": {
            "value": "ILLUMINA",
            "label": "ILLUMINA"
        },
        "datasessions": [],
        "deleted": false,
        "deleted_by": null,
        "deleted_date": null,
        "owner": {
            "id": 8,
            "username": "illumina_assay_owner_username",
            "full_name": "illumina_assay_owner_full_name"
        },
        "owned_by": {
            "id": 2,
            "name": "Computational Support Genome Biology"
        },
        "public": false,
        "permissions": {
            "public": false,
            "actions": {
                "view": {
                    "users": [
                        {
                            "id": 8,
                            "username": "scholtal",
                            "email": "jelle.scholtalbers@embl.de",
                            "is_active": true,
                            "full_name": "Jelle Scholtalbers"
                        }
                    ],
                    "groups": [
                        {
                            "id": 2,
                            "name": "Computational Support Genome Biology"
                        }
                    ]
                },
                "change": {
                    "users": [
                        {
                            "id": 8,
                            "username": "scholtal",
                            "email": "jelle.scholtalbers@embl.de",
                            "is_active": true,
                            "full_name": "Jelle Scholtalbers"
                        }
                    ],
                    "groups": []
                },
                "delete": {
                    "users": [
                        {
                            "id": 8,
                            "username": "scholtal",
                            "email": "jelle.scholtalbers@embl.de",
                            "is_active": true,
                            "full_name": "Jelle Scholtalbers"
                        }
                    ],
                    "groups": []
                }
            },
            "allowed": [
                "change",
                "view"
            ]
        },
        "run_dir": null,
        "nr_of_samples": 1,
        "studies": [],
        "is_managed": false,
        "state": {
            "value": "NEW",
            "label": "NEW"
        },
        "info": "null",
        "workflow": {},
        "generic_assay_type": "",
        "flowcell": "a",
        "flowcell_version": "",
        "chemistry": null,
        "lane": "1",
        "runtype": {
            "value": "single-end",
            "label": "Single-End"
        },
        "runmode": "",
        "readlength": "",
        "multiplexed": false,
        "demultiplexed": false,
        "lineage": {
            "a0812c98-89f3-4dda-b0bf-4cd9f4c0c53b": {
                "is_current": true,
                "id": "a0812c98-89f3-4dda-b0bf-4cd9f4c0c53b",
                "name": "JellesAssay",
                "model_name": "assay",
                "app_name": "assays",
                "model_type": "DEFAULT",
                "deleted": false,
                "parents": [],
                "edges_annotated": {},
                "outbound": 0,
                "inbound": 0
            }
        }
    }
}